<svg width="80" height="80" viewBox="0 0 80 80" fill="none" xmlns="http://www.w3.org/2000/svg">
<g clip-path="url(#clip0_63_928)">
<g clip-path="url(#clip1_63_928)">
<path opacity="0.3" d="M60.3144 61.3718C60.3144 61.6711 58.1744 61.9581 54.365 62.1698C50.5557 62.3814 45.3891 62.5003 40.0019 62.5003C34.6147 62.5003 29.4482 62.3814 25.6388 62.1698C21.8295 61.9581 19.6895 61.6711 19.6895 61.3718C19.6895 61.0725 21.8295 60.7855 25.6388 60.5739C29.4482 60.3622 34.6147 60.2433 40.0019 60.2433C45.3891 60.2433 50.5557 60.3622 54.365 60.5739C58.1744 60.7855 60.3144 61.0725 60.3144 61.3718Z" fill="url(#paint0_radial_63_928)"/>
<path fill-rule="evenodd" clip-rule="evenodd" d="M30.4666 17.506L32.9608 39.1228L15.9263 36.6286L27.9633 48.2622L40.0018 59.3864L52.0402 48.2622L64.0744 36.6286L47.0427 39.1228L49.5355 17.506H30.4666H30.4666Z" fill="url(#paint1_linear_63_928)"/>
<path fill-rule="evenodd" clip-rule="evenodd" d="M40.0006 61.3724L64.0735 36.6292L52.0367 48.2627L40.0006 59.3869L27.9631 48.2627L15.9263 36.6292L40.0006 61.3724Z" fill="url(#paint2_linear_63_928)"/>
<path fill-rule="evenodd" clip-rule="evenodd" d="M15.9272 36.6292L32.9611 39.1227V36.6292H15.9272Z" fill="#C7F754"/>
<path fill-rule="evenodd" clip-rule="evenodd" d="M47.0435 39.1227L64.0752 36.6292H47.0435V39.1227Z" fill="#C7F754"/>
<path fill-rule="evenodd" clip-rule="evenodd" d="M49.5359 36.6299V17.5067L47.0425 18.3483V39.1234L49.5359 36.6299Z" fill="url(#paint3_linear_63_928)"/>
<path fill-rule="evenodd" clip-rule="evenodd" d="M32.9618 39.1234V18.3482L30.4683 17.5067V36.6298L32.9618 39.1234Z" fill="url(#paint4_linear_63_928)"/>
<path fill-rule="evenodd" clip-rule="evenodd" d="M25.043 17.5067L26.0564 26.2921L19.1333 25.2784L24.0253 30.0065L28.918 34.5275V17.5067H25.043Z" fill="url(#paint5_linear_63_928)"/>
<path fill-rule="evenodd" clip-rule="evenodd" d="M28.9176 35.3344L28.9178 35.3343V34.5273L28.9176 34.5275L24.0254 30.0064L19.1333 25.2783L28.9176 35.3344Z" fill="url(#paint6_linear_63_928)"/>
<path fill-rule="evenodd" clip-rule="evenodd" d="M19.1343 25.2777L26.0572 26.2912V25.2777H19.1343Z" fill="#C7F754"/>
<path fill-rule="evenodd" clip-rule="evenodd" d="M26.0558 26.2921L26.0469 17.5067H25.0425V25.2786L26.0558 26.2921Z" fill="url(#paint7_linear_63_928)"/>
<path fill-rule="evenodd" clip-rule="evenodd" d="M54.9574 17.5067L53.9441 26.2921L60.8672 25.2784L55.9752 30.0065L51.0825 34.5275V17.5067H54.9574Z" fill="url(#paint8_linear_63_928)"/>
<path fill-rule="evenodd" clip-rule="evenodd" d="M51.0827 35.3344L51.0825 35.3343V34.5273L51.0827 34.5275L55.9749 30.0064L60.8669 25.2783L51.0827 35.3344Z" fill="url(#paint9_linear_63_928)"/>
<path fill-rule="evenodd" clip-rule="evenodd" d="M60.8672 25.2777L53.9443 26.2912V25.2777H60.8672Z" fill="#C7F754"/>
<path fill-rule="evenodd" clip-rule="evenodd" d="M53.9438 26.2921L53.9224 17.5067H54.9572V25.2786L53.9438 26.2921Z" fill="url(#paint10_linear_63_928)"/>
</g>
</g>
<defs>
<radialGradient id="paint0_radial_63_928" cx="0" cy="0" r="1" gradientUnits="userSpaceOnUse" gradientTransform="translate(40.0019 61.3718) scale(20.3126 1.12846)">
<stop/>
<stop offset="0.1" stop-opacity="0.863"/>
<stop offset="0.3" stop-opacity="0.588"/>
<stop offset="0.6" stop-opacity="0.196"/>
<stop offset="0.9" stop-opacity="0.039"/>
<stop offset="1" stop-opacity="0"/>
</radialGradient>
<linearGradient id="paint1_linear_63_928" x1="15.9263" y1="19.2648" x2="15.9263" y2="59.7184" gradientUnits="userSpaceOnUse">
<stop stop-color="#C5FF27"/>
<stop offset="0.93" stop-color="#7EB604"/>
<stop offset="1" stop-color="#6C9E00"/>
</linearGradient>
<linearGradient id="paint2_linear_63_928" x1="15.9263" y1="39.0806" x2="15.9263" y2="61.4152" gradientUnits="userSpaceOnUse">
<stop stop-color="#78B000"/>
<stop offset="1" stop-color="#659301"/>
</linearGradient>
<linearGradient id="paint3_linear_63_928" x1="49.5367" y1="36.7011" x2="49.5367" y2="19.5248" gradientUnits="userSpaceOnUse">
<stop stop-color="#96C817"/>
<stop offset="1" stop-color="#C3FD26"/>
</linearGradient>
<linearGradient id="paint4_linear_63_928" x1="32.9626" y1="36.7011" x2="32.9626" y2="19.5248" gradientUnits="userSpaceOnUse">
<stop stop-color="#96C817"/>
<stop offset="1" stop-color="#C5FF27"/>
</linearGradient>
<linearGradient id="paint5_linear_63_928" x1="19.1333" y1="18.2215" x2="19.1333" y2="34.6624" gradientUnits="userSpaceOnUse">
<stop stop-color="#C5FF27"/>
<stop offset="0.93" stop-color="#7EB604"/>
<stop offset="1" stop-color="#6C9E00"/>
</linearGradient>
<linearGradient id="paint6_linear_63_928" x1="19.1333" y1="26.2746" x2="19.1333" y2="35.3518" gradientUnits="userSpaceOnUse">
<stop stop-color="#78B000"/>
<stop offset="1" stop-color="#659301"/>
</linearGradient>
<linearGradient id="paint7_linear_63_928" x1="26.0561" y1="25.3076" x2="26.0561" y2="18.3268" gradientUnits="userSpaceOnUse">
<stop stop-color="#96C817"/>
<stop offset="1" stop-color="#C5FF27"/>
</linearGradient>
<linearGradient id="paint8_linear_63_928" x1="41.2979" y1="18.2215" x2="41.2979" y2="34.6624" gradientUnits="userSpaceOnUse">
<stop stop-color="#C5FF27"/>
<stop offset="0.93" stop-color="#7EB604"/>
<stop offset="1" stop-color="#6C9E00"/>
</linearGradient>
<linearGradient id="paint9_linear_63_928" x1="41.299" y1="26.2746" x2="41.299" y2="35.3518" gradientUnits="userSpaceOnUse">
<stop stop-color="#78B000"/>
<stop offset="1" stop-color="#659301"/>
</linearGradient>
<linearGradient id="paint10_linear_63_928" x1="54.9783" y1="25.3076" x2="54.9783" y2="18.3268" gradientUnits="userSpaceOnUse">
<stop stop-color="#96C817"/>
<stop offset="1" stop-color="#C5FF27"/>
</linearGradient>
<clipPath id="clip0_63_928">
<rect width="80" height="80" fill="white"/>
</clipPath>
<clipPath id="clip1_63_928">
<rect width="48.1482" height="48.1482" fill="white" transform="translate(15.9263 15.9259)"/>
</clipPath>
</defs>
</svg>
